{
  "$schema": "http://json-schema.org/draft-06/schema#",
  "type": "object",
  "properties": {
    "type": {
      "type": "string"
    },
    "url": {
      "type": "string"
    },
    "username": {
      "type": "string"
    },
    "password": {
      "type": "string"
    },
    "replaces-base": {
      "type": "boolean"
    }
  },
  "required": [
    "type",
    "url",
    "username",
    "password"
  ],
  "additionalProperties": false
}
